{
  "version": "v4",
  "repo": "borisyankov/DefinitelyTyped",
  "ref": "master",
  "path": "typings",
  "bundle": "typings/tsd.d.ts",
  "installed": {
    "assert/assert.d.ts": {
      "commit": "44cbde48eecd1918ed54b3be49a9752688b6c65a"
    },
    "mocha/mocha.d.ts": {
      "commit": "44cbde48eecd1918ed54b3be49a9752688b6c65a"
    }
  }
}
